{
  "formatVersion": 1,
  "database": {
    "version": 1,
    "identityHash": "7a764ec90027bb6b1a5b67df8ee5a14b",
    "entities": [
      {
        "tableName": "paragraphs",
        "createSql": "CREATE TABLE IF NOT EXISTS `${TABLE_NAME}` (`id` INTEGER PRIMARY KEY AUTOINCREMENT NOT NULL, `sequence` INTEGER NOT NULL, `prose` TEXT NOT NULL)",
        "fields": [
          {
            "fieldPath": "id",
            "columnName": "id",
            "affinity": "INTEGER",
            "notNull": true
          },
          {
            "fieldPath": "sequence",
            "columnName": "sequence",
            "affinity": "INTEGER",
            "notNull": true
          },
          {
            "fieldPath": "prose",
            "columnName": "prose",
            "affinity": "TEXT",
            "notNull": true
          }
        ],
        "primaryKey": {
          "columnNames": [
            "id"
          ],
          "autoGenerate": true
        },
        "indices": [],
        "foreignKeys": []
      },
      {
        "ftsVersion": "FTS4",
        "ftsOptions": {
          "tokenizer": "simple",
          "tokenizerArgs": [],
          "contentTable": "paragraphs",
          "languageIdColumnName": "",
          "matchInfo": "FTS4",
          "notIndexedColumns": [],
          "prefixSizes": [],
          "preferredOrder": "ASC"
        },
        "contentSyncTriggers": [
          "CREATE TRIGGER IF NOT EXISTS room_fts_content_sync_paragraphsFts_BEFORE_UPDATE BEFORE UPDATE ON `paragraphs` BEGIN DELETE FROM `paragraphsFts` WHERE `docid`=OLD.`rowid`; END",
          "CREATE TRIGGER IF NOT EXISTS room_fts_content_sync_paragraphsFts_BEFORE_DELETE BEFORE DELETE ON `paragraphs` BEGIN DELETE FROM `paragraphsFts` WHERE `docid`=OLD.`rowid`; END",
          "CREATE TRIGGER IF NOT EXISTS room_fts_content_sync_paragraphsFts_AFTER_UPDATE AFTER UPDATE ON `paragraphs` BEGIN INSERT INTO `paragraphsFts`(`docid`, `prose`) VALUES (NEW.`rowid`, NEW.`prose`); END",
          "CREATE TRIGGER IF NOT EXISTS room_fts_content_sync_paragraphsFts_AFTER_INSERT AFTER INSERT ON `paragraphs` BEGIN INSERT INTO `paragraphsFts`(`docid`, `prose`) VALUES (NEW.`rowid`, NEW.`prose`); END"
        ],
        "tableName": "paragraphsFts",
        "createSql": "CREATE VIRTUAL TABLE IF NOT EXISTS `${TABLE_NAME}` USING FTS4(`prose` TEXT NOT NULL, content=`paragraphs`)",
        "fields": [
          {
            "fieldPath": "prose",
            "columnName": "prose",
            "affinity": "TEXT",
            "notNull": true
          }
        ],
        "primaryKey": {
          "columnNames": [],
          "autoGenerate": false
        },
        "indices": [],
        "foreignKeys": []
      }
    ],
    "views": [],
    "setupQueries": [
      "CREATE TABLE IF NOT EXISTS room_master_table (id INTEGER PRIMARY KEY,identity_hash TEXT)",
      "INSERT OR REPLACE INTO room_master_table (id,identity_hash) VALUES(42, '7a764ec90027bb6b1a5b67df8ee5a14b')"
    ]
  }
}